<?xml version="1.0" encoding="UTF-8" standalone="no"?>
<!-- Created with Inkscape (http://www.inkscape.org/) -->

<svg
   xmlns:dc="http://purl.org/dc/elements/1.1/"
   xmlns:cc="http://creativecommons.org/ns#"
   xmlns:rdf="http://www.w3.org/1999/02/22-rdf-syntax-ns#"
   xmlns:svg="http://www.w3.org/2000/svg"
   xmlns="http://www.w3.org/2000/svg"
   xmlns:sodipodi="http://sodipodi.sourceforge.net/DTD/sodipodi-0.dtd"
   xmlns:inkscape="http://www.inkscape.org/namespaces/inkscape"
   width="295.06497mm"
   height="131.54947mm"
   viewBox="0 0 295.06497 131.54947"
   version="1.1"
   id="svg8"
   inkscape:version="0.92.4 (5da689c313, 2019-01-14)"
   sodipodi:docname="comic2.svg">
  <defs
     id="defs2" />
  <sodipodi:namedview
     id="base"
     pagecolor="#ffffff"
     bordercolor="#666666"
     borderopacity="1.0"
     inkscape:pageopacity="0.0"
     inkscape:pageshadow="2"
     inkscape:zoom="1"
     inkscape:cx="209.43375"
     inkscape:cy="243.30211"
     inkscape:document-units="mm"
     inkscape:current-layer="layer1"
     showgrid="false"
     inkscape:window-width="1278"
     inkscape:window-height="1438"
     inkscape:window-x="3360"
     inkscape:window-y="0"
     inkscape:window-maximized="0"
     fit-margin-top="0"
     fit-margin-left="0"
     fit-margin-right="0"
     fit-margin-bottom="0" />
  <metadata
     id="metadata5">
    <rdf:RDF>
      <cc:Work
         rdf:about="">
        <dc:format>image/svg+xml</dc:format>
        <dc:type
           rdf:resource="http://purl.org/dc/dcmitype/StillImage" />
        <dc:title />
      </cc:Work>
    </rdf:RDF>
  </metadata>
  <g
     inkscape:label="Layer 1"
     inkscape:groupmode="layer"
     id="layer1"
     transform="translate(-1.3900974,-89.224968)">
    <rect
       style="fill:#ffffff;stroke:#000000;stroke-width:2;stroke-miterlimit:4;stroke-dasharray:none;stroke-opacity:1"
       id="rect3715"
       width="293.06497"
       height="129.54947"
       x="2.3900974"
       y="90.224968" />
    <path
       style="fill:none;fill-rule:evenodd;stroke:#000000;stroke-width:1;stroke-linecap:butt;stroke-linejoin:miter;stroke-miterlimit:4;stroke-dasharray:none;stroke-opacity:1"
       d="m 149.29676,90.454114 c 0,128.342826 0,128.717006 0,128.717006"
       id="path4522"
       inkscape:connector-curvature="0" />
    <g
       id="g4543"
       transform="translate(-4.1159507,8.2319014)">
      <path
         inkscape:connector-curvature="0"
         id="path4524"
         d="m 44.901279,131.9878 c 2.120339,0 4.240678,0 6.361014,0 0.623631,0 1.247259,0 1.870888,0 0.374179,0 0.767556,-0.11832 1.122531,0 0.167339,0.0558 0.216411,0.2953 0.37418,0.37418 0.111556,0.0558 0.249451,0 0.374176,0 0.249452,0 0.498904,0 0.748355,0 0.623629,0 1.247257,0 1.870888,0 0.249449,0 0.511704,0.0789 0.748352,0 0.264584,-0.0882 0.483772,-0.28598 0.748356,-0.37418 0.301175,-0.10039 1.257601,0.11956 1.496708,0 0.157768,-0.0789 0.216411,-0.29529 0.374179,-0.37417 0.223115,-0.11156 0.525238,0.11155 0.748353,0 0.157768,-0.0789 0.21641,-0.2953 0.374179,-0.37418 0.223115,-0.11156 0.571966,0.17639 0.748355,0 0.08819,-0.0882 -0.0882,-0.28599 0,-0.37418 0.08819,-0.0882 0.285983,0.0882 0.374177,0 0.08819,-0.0882 0,-0.24945 0,-0.37418 0.124724,0 0.26262,0.0558 0.374176,0 0.157768,-0.0789 0.216411,-0.29529 0.374179,-0.37417 0.111556,-0.0558 0.46237,-0.0882 0.374177,0 -0.19721,0.1972 -1.027251,0.37417 -0.748356,0.37417 0.394417,0 0.794359,-0.15539 1.122532,-0.37417 0.10378,-0.0692 -0.08819,-0.28599 0,-0.37418 0.0882,-0.0882 0.249452,0 0.374179,0 0.195665,0 1.398323,-0.0492 1.496708,0 0.157769,0.0789 0.216411,0.29529 0.374177,0.37418 0.258458,0.12923 1.739545,-0.13135 1.870887,0 0.17639,0.17638 -0.111556,0.52524 0,0.74835 0.07888,0.15777 0.295293,0.21641 0.374179,0.37418 0.05578,0.11156 -0.0882,0.28598 0,0.37418 0.08819,0.0882 0.285983,-0.0882 0.374176,0 0.17639,0.17638 -0.17639,0.57196 0,0.74835 0.08819,0.0882 0.285983,-0.0882 0.374177,0 0.176389,0.17639 -0.111557,0.52524 0,0.74835 0.07888,0.15777 0.295293,0.21641 0.374179,0.37418 0.07418,0.14836 -0.0765,1.04604 0,1.12253 0.08819,0.0882 0.285982,-0.0882 0.374176,0 0.08819,0.0882 0,0.24946 0,0.37418 0,0.26026 -0.06766,1.73557 0,1.87089 0.07888,0.15776 0.295294,0.21641 0.374176,0.37418 0.118031,0.23605 -0.118028,1.63483 0,1.87088 0.07889,0.15777 0.295294,0.21641 0.374179,0.37418 0.14967,0.29934 -0.149672,0.82319 0,1.12253 0.07888,0.15777 0.295294,0.21641 0.374177,0.37418 0.149672,0.29934 -0.14967,0.82319 0,1.12253 0.07888,0.15777 0.295293,0.21641 0.374176,0.37418 0.149672,0.29934 -0.149669,0.82319 0,1.12253 0.07889,0.15777 0.295296,0.21641 0.374179,0.37418 0.111557,0.22311 -0.111559,0.52524 0,0.74835 0.07888,0.15777 0.295294,0.21641 0.374177,0.37418 0.111559,0.22312 -0.17639,0.57197 0,0.74835 0.08819,0.0882 0.285982,-0.0882 0.374179,0 0.176387,0.17639 -0.111559,0.52524 0,0.74836 0.07888,0.15777 0.295293,0.21641 0.374176,0.37417 0.05578,0.11156 -0.05578,0.26263 0,0.37418 0.07888,0.15777 0.295294,0.21641 0.374176,0.37418 0.111559,0.22312 -0.111556,0.52524 0,0.74836 0.07888,0.15776 0.295294,0.21641 0.37418,0.37417 0.05578,0.11156 -0.05578,0.26262 0,0.37418 0.07888,0.15777 0.295293,0.21641 0.374176,0.37418 0.05578,0.11156 -0.05578,0.26262 0,0.37417 0.07888,0.15777 0.295293,0.21641 0.374176,0.37418 0.05578,0.11156 -0.05578,0.26262 0,0.37418 0.07889,0.15777 0.295294,0.21641 0.374179,0.37418 0.05578,0.11155 -0.05578,0.26262 0,0.37417 0.07888,0.15777 0.295294,0.21642 0.374177,0.37418 0.05578,0.11156 -0.05578,0.26262 0,0.37418 0.07888,0.15777 0.295293,0.21641 0.374176,0.37418 0.111559,0.22311 -0.111556,0.52523 0,0.74835 0.07889,0.15777 0.295294,0.21641 0.374179,0.37418 0.05578,0.11156 -0.0882,0.28598 0,0.37417 0.08819,0.0882 0.285983,-0.0882 0.374177,0 0.176389,0.17639 -0.07888,0.51171 0,0.74836 0.226531,0.67959 0.320238,0.69442 0.748355,1.12253 0.124725,0.12473 0.295293,0.21641 0.374176,0.37418 0.111559,0.22312 -0.111559,0.52524 0,0.74835 0.157769,0.31554 0.590587,0.43283 0.748356,0.74836 0.111559,0.22311 -0.17639,0.57197 0,0.74835 0.08819,0.0882 0.285983,-0.0882 0.374176,0 0.0882,0.0882 -0.05578,0.26262 0,0.37418 0.07888,0.15777 0.295294,0.21641 0.374179,0.37418 0.05578,0.11156 -0.05578,0.26262 0,0.37418 0.157766,0.31553 0.590587,0.43282 0.748353,0.74835 0.111559,0.22312 -0.176387,0.57197 0,0.74835 0.0882,0.0882 0.285983,-0.0882 0.374179,0 0.08819,0.0882 -0.05578,0.26263 0,0.37418 0.07888,0.15777 0.295294,0.21641 0.374176,0.37418 0.05578,0.11156 -0.08819,0.28598 0,0.37418 0.08819,0.0882 0.285983,-0.0882 0.374177,0 0.187089,0.18709 -0.187087,0.93544 0,1.12253 0.0882,0.0882 0.285983,-0.0882 0.374179,0 0.08819,0.0882 -0.05578,0.26262 0,0.37417 0.07888,0.15777 0.295293,0.21642 0.374176,0.37418 0.07418,0.14836 -0.0765,1.04604 0,1.12254 0.08819,0.0882 0.285983,-0.0882 0.374177,0 0.176389,0.17639 -0.111557,0.52523 0,0.74835 0.07888,0.15777 0.295296,0.21641 0.374179,0.37418 0.07418,0.14835 -0.0765,1.04603 0,1.12253 0.08819,0.0882 0.285983,-0.0882 0.374176,0 0.102383,0.10238 -0.101494,1.29372 0,1.49671 0.07888,0.15777 0.295294,0.21641 0.374176,0.37418 0.117592,0.23517 -0.117588,1.26153 0,1.4967 0.07889,0.15777 0.295297,0.21642 0.37418,0.37418 0.113604,0.22721 -0.113605,2.01786 0,2.24507 0.07888,0.15776 0.295293,0.21641 0.374176,0.37417 0.05578,0.11156 0,0.24946 0,0.37418 0,0.12473 0,0.24945 0,0.37418 0,0.62363 0,1.24726 0,1.87089 0,0.12472 -0.05578,0.26261 0,0.37417 0.07888,0.15777 0.295293,0.21641 0.374179,0.37418 0.118028,0.23606 -0.118031,1.63483 0,1.87089 0.46237,0.92474 0.374176,-0.12916 0.374176,0.74835 0,0.74835 0,1.49671 0,2.24507 0,0.12472 0,0.24945 0,0.37417 0,0.12473 -0.05578,0.26262 0,0.37418 0.07888,0.15777 0.295294,0.21641 0.374177,0.37418 0.05578,0.11156 0,0.24945 0,0.37417 0,0.74836 0,1.49671 0,2.24507 0,0.12472 0.0882,0.28598 0,0.37418 -0.08819,0.0882 -0.285983,-0.0882 -0.374177,0 -0.08819,0.0882 0.05578,0.26261 0,0.37417 -0.07888,0.15777 -0.295293,0.21641 -0.374176,0.37418 -0.05578,0.11156 0.08819,0.28598 0,0.37418 -0.17639,0.17639 -0.571968,-0.17639 -0.748355,0 -0.0882,0.0882 0.08819,0.28598 0,0.37417 -0.17639,0.17639 -0.525238,-0.11155 -0.748356,0 -0.157766,0.0789 -0.216411,0.2953 -0.374176,0.37418 -0.09839,0.0492 -1.301047,0 -1.496711,0 -0.124725,0 -0.285983,0.0882 -0.374177,0 -0.08819,-0.0882 0.08819,-0.28598 0,-0.37418 -0.187089,-0.18708 -0.935442,0.18709 -1.122531,0 -0.08819,-0.0882 0.08819,-0.28598 0,-0.37417 -0.0765,-0.0765 -0.974175,0.0742 -1.122532,0 -0.157769,-0.0789 -0.216411,-0.2953 -0.374179,-0.37418 -0.148357,-0.0742 -1.046036,0.0765 -1.122532,0 -0.08819,-0.0882 0.0882,-0.28598 0,-0.37418 -0.07649,-0.0765 -0.974172,0.0742 -1.122532,0 -0.157766,-0.0789 -0.216411,-0.29529 -0.374176,-0.37417 -0.113874,-0.0569 -0.954019,0 -1.122532,0 -0.124727,0 -0.249452,0 -0.374176,0 -0.124728,0 -0.285983,0.0882 -0.37418,0 -0.08819,-0.0882 0.0882,-0.28599 0,-0.37418 -0.131341,-0.13134 -1.612429,0.12923 -1.870887,0 -0.157766,-0.0789 -0.216408,-0.2953 -0.374176,-0.37418 -0.111559,-0.0558 -0.26262,0.0558 -0.374177,0 -0.315534,-0.15776 -0.432821,-0.59059 -0.748355,-0.74835 -0.111559,-0.0558 -0.285983,0.0882 -0.374176,0 -0.0882,-0.0882 0.08819,-0.28599 0,-0.37418 -0.0882,-0.0882 -0.285983,0.0882 -0.374179,0 -0.498904,-0.4989 0.62363,-0.37418 -0.374177,-0.37418 -1.036169,0 0.287814,-0.37418 -0.748355,-0.37418 -0.124725,0 -0.498904,0 -0.374177,0 0.249452,0 0.997805,0 0.748356,0 -0.374179,0 -0.748356,0 -1.122532,0 -0.124727,0 -0.249452,0 -0.374179,0 -0.124725,0 -0.285983,0.0882 -0.374176,0 -0.0882,-0.0882 0.08819,-0.28598 0,-0.37417 -0.0882,-0.0882 -0.249452,0 -0.374179,0 -0.124725,0 -0.24945,0 -0.374177,0 -1.247256,0 -2.494515,0 -3.741772,0 -1.746162,0 -3.492322,0 -5.238482,0 -0.208852,0 -1.699604,-0.0571 -1.870888,0 -0.167338,0.0558 -0.21641,0.29529 -0.374179,0.37417 -0.247975,0.12399 -1.1831,-0.10453 -1.496708,0 -0.264583,0.0882 -0.483772,0.28599 -0.748355,0.37418 -0.362905,0.12097 -1.996753,-0.12415 -2.245064,0 -0.157766,0.0789 -0.216411,0.2953 -0.374176,0.37418 -0.223118,0.11156 -0.571966,-0.17639 -0.748356,0 -0.08819,0.0882 0.08819,0.28598 0,0.37418 -0.0765,0.0765 -0.974174,-0.0742 -1.122532,0 -0.157765,0.0789 -0.21641,0.29529 -0.374176,0.37417 -0.111559,0.0558 -0.26262,-0.0558 -0.374179,0 -0.157766,0.0789 -0.216411,0.2953 -0.374176,0.37418 -0.227209,0.11361 -2.017856,-0.1136 -2.245064,0 -0.157768,0.0789 -0.216411,0.29529 -0.374179,0.37418 -0.111556,0.0558 -0.249449,0 -0.374176,0 -0.124725,0 -0.249452,0 -0.374177,0 -1.247259,0 -2.494515,0 -3.741774,0 -0.124725,0 -0.249452,0 -0.374177,0 -0.124727,0 -0.285983,-0.0882 -0.374179,0 -0.08819,0.0882 0.0882,0.28598 0,0.37418 -0.01204,0.012 -1.031782,0 -1.122532,0 -0.124724,0 -0.249451,0 -0.374176,0 -0.124725,0 -0.374176,0.12472 -0.374176,0 0,-0.12473 0.374176,0.12472 0.374176,0 0,-0.17639 -0.295294,-0.21641 -0.374176,-0.37418 -0.06766,-0.13532 0,-1.61063 0,-1.87089 0,-0.9978 0,-1.99561 0,-2.99342 0,-0.16851 -0.05694,-1.00865 0,-1.12253 0.07888,-0.15777 0.295293,-0.21641 0.374176,-0.37418 0.05578,-0.11155 0,-0.24945 0,-0.37417 0,-0.12473 0,-0.24946 0,-0.37418 0,-0.62363 0,-1.24726 0,-1.87089 0,-0.12472 0,-0.24945 0,-0.37417 0,-0.12473 -0.05578,-0.26262 0,-0.37418 0.07888,-0.15777 0.295293,-0.21641 0.374176,-0.37418 0.05578,-0.11156 0,-0.24945 0,-0.37418 0,-0.12472 0,-0.24945 0,-0.37417 0,-0.62363 0,-1.24726 0,-1.87089 0,-0.12473 -0.05578,-0.26262 0,-0.37418 0.07889,-0.15776 0.295294,-0.21641 0.374179,-0.37417 0.05578,-0.11156 0,-0.24946 0,-0.37418 0,-0.12473 0,-0.24946 0,-0.37418 0,-0.74836 0,-1.49671 0,-2.24506 0,-0.16852 -0.05694,-1.00866 0,-1.12254 0.07888,-0.15776 0.318397,-0.20684 0.374177,-0.37417 0.06426,-0.19277 0,-2.22343 0,-2.61924 0,-0.12473 0,-0.24946 0,-0.37418 0,-0.12473 -0.05578,-0.26262 0,-0.37418 0.07888,-0.15777 0.295293,-0.21641 0.374176,-0.37418 0.113607,-0.2272 -0.113604,-2.01785 0,-2.24506 0.07889,-0.15777 0.295296,-0.21641 0.374179,-0.37418 0.117589,-0.23518 -0.117589,-1.26153 0,-1.49671 0.07888,-0.15777 0.295294,-0.21641 0.374177,-0.37417 0.149672,-0.29935 -0.14967,-0.82319 0,-1.12254 0.07888,-0.15776 0.295293,-0.21641 0.374179,-0.37417 0.110384,-0.22078 -0.08579,-0.86517 0,-1.12254 0.08819,-0.26458 0.285982,-0.48377 0.374176,-0.74835 0.07888,-0.23665 -0.111559,-0.52524 0,-0.74835 0.07888,-0.15777 0.295294,-0.21641 0.374176,-0.37418 0.118028,-0.23606 -0.118028,-1.63483 0,-1.87089 0.07888,-0.15777 0.295294,-0.21641 0.374179,-0.37418 0.117589,-0.23517 -0.117591,-1.26153 0,-1.49671 0.07888,-0.15776 0.295294,-0.21641 0.374177,-0.37417 0.149669,-0.29935 -0.149672,-0.82319 0,-1.12254 0.07888,-0.15776 0.295293,-0.21641 0.374176,-0.37417 0.149672,-0.29934 -0.149669,-0.82319 0,-1.12253 0.07889,-0.15777 0.295294,-0.21641 0.374179,-0.37418 0.04919,-0.0984 0,-1.30105 0,-1.49671 0,-0.87751 -0.0882,0.17639 0.374177,-0.74836 0.05578,-0.11155 0,-0.24945 0,-0.37417 0,-0.12473 0,-0.24946 0,-0.37418 0,-0.74836 0,-1.49671 0,-2.24507 0,-0.16851 -0.05694,-1.00865 0,-1.12253 0.07888,-0.15776 0.295293,-0.21641 0.374176,-0.37417 0.04919,-0.0984 0,-1.30105 0,-1.49671 0,-1.12253 0,-2.24507 0,-3.3676 0,-0.19567 -0.04919,-1.39832 0,-1.49671 0.07889,-0.15776 0.295294,-0.21641 0.374179,-0.37418 0.05578,-0.11155 0,-0.24945 0,-0.37417 0,-0.12473 0,-0.24946 0,-0.37418 0,-0.12473 -0.124727,-0.37418 0,-0.37418 0.124725,0 0,0.24945 0,0.37418 0.249452,-0.62363 0.498904,-1.24726 0.748353,-1.87089 z"
         style="fill:#ff0000;fill-opacity:1;fill-rule:evenodd;stroke:#000000;stroke-width:1;stroke-linecap:butt;stroke-linejoin:miter;stroke-miterlimit:4;stroke-dasharray:none;stroke-opacity:1" />
      <ellipse
         ry="10.851143"
         rx="7.1093688"
         cy="119.63995"
         cx="56.126598"
         id="path4528"
         style="fill:#ffffff;fill-opacity:1;stroke:#000000;stroke-width:1;stroke-miterlimit:4;stroke-dasharray:none;stroke-opacity:1" />
      <path
         inkscape:connector-curvature="0"
         id="path4530"
         d="m 25.069881,136.8521 c 1.719827,0.85992 0.938919,0.74836 2.245064,0.74836 0.124725,0 0.255852,-0.0394 0.374177,0 0.264583,0.0882 0.477787,0.30653 0.748355,0.37417 0.484008,0.12101 1.012703,-0.121 1.496708,0 0.270569,0.0677 0.483772,0.28599 0.748356,0.37418 0.118327,0.0395 0.249452,0 0.374179,0 0.374176,0 0.755621,-0.0734 1.122532,0 0.273478,0.0547 0.477784,0.30654 0.748352,0.37418 0.484008,0.121 1.012704,-0.121 1.496711,0 0.270569,0.0676 0.477785,0.30654 0.748353,0.37418 0.294336,0.0736 1.855949,0 2.245066,0 1.247257,0 2.494516,0 3.741772,0 0.316799,0 1.295551,-0.0671 1.496711,0 0.167336,0.0558 0.206838,0.3184 0.374176,0.37418 0.218925,0.073 1.923897,0 2.245064,0 1.995612,0 3.991226,0 5.986838,0 2.245064,0 4.490128,0 6.735191,0 0.748356,0 1.496711,0 2.245064,0 0.249452,0 0.511704,0.0789 0.748355,0 0.167339,-0.0558 0.206841,-0.3184 0.374177,-0.37418 0.236651,-0.0789 0.498903,0 0.748355,0 0.498904,0 0.997807,0 1.496711,0 0.249449,0 0.503745,0.0489 0.748353,0 0.38676,-0.0773 0.735774,-0.29683 1.122531,-0.37418 0.244608,-0.0489 0.498904,0 0.748356,0 0.997807,0 1.995612,0 2.993419,0 0.997807,0 1.995612,0 2.993419,0 0.374176,0 0.748353,0 1.122532,0 0.374176,0 0.755621,0.0734 1.122532,0 0.273478,-0.0547 0.474874,-0.31948 0.748355,-0.37418 0.366911,-0.0734 0.748353,0 1.122532,0 0.623628,0 1.247256,0 1.870885,0 0.249451,0 0.503748,0.0489 0.748355,0 0.386757,-0.0773 0.739891,-0.27851 1.122532,-0.37418 0.532318,-0.13308 1.373066,0.16595 1.870887,0 0.167338,-0.0558 0.216411,-0.29529 0.374176,-0.37417 0.09674,-0.0484 1.979848,0 2.245067,0 1.621432,0 3.242868,0 4.864303,0 0.137412,0 1.481654,0.0151 1.496711,0 0.08819,-0.0882 -0.0882,-0.28598 0,-0.37418 0.102566,-0.10257 1.607778,0.0877 1.870885,0 0.264583,-0.0882 0.474877,-0.31948 0.748355,-0.37418 0.366911,-0.0734 0.748356,0 1.122532,0 0.748356,0 1.496711,0 2.245064,0 0.374179,0 0.755621,0.0734 1.122532,0 2.428679,-0.48573 -0.833906,-0.37417 1.49671,-0.37417"
         style="fill:none;fill-rule:evenodd;stroke:#000000;stroke-width:1;stroke-linecap:butt;stroke-linejoin:miter;stroke-miterlimit:4;stroke-dasharray:none;stroke-opacity:1" />
      <path
         inkscape:connector-curvature="0"
         id="path4532"
         d="m 57.997486,139.84552 c 0,0.62363 0,1.24726 0,1.87089 0,0.12472 0.03944,0.25585 0,0.37418 -0.08819,0.26458 -0.306536,0.47778 -0.374176,0.74835 -0.09075,0.36301 0,0.74836 0,1.12253 0,0.99781 0,1.99561 0,2.99342 0,0.24945 0,0.49891 0,0.74835 0,0.24946 0.0605,0.50636 0,0.74836 -0.485736,1.94294 -0.374179,-0.39945 -0.374179,1.49671 0,1.99561 0,3.99122 0,5.98684 0,0.87308 0,1.74616 0,2.61924 0,0.16851 -0.05694,1.00866 0,1.12253 0.07888,0.15777 0.295296,0.21641 0.374179,0.37418 0.06766,0.13531 0,1.61063 0,1.87088 0,0.99781 0,1.99562 0,2.99342 0,0.12473 -0.08819,0.28599 0,0.37418 0.08819,0.0882 0.285983,-0.0882 0.374176,0 0.115864,0.11586 -0.115864,1.75502 0,1.87089 0.0882,0.0882 0.285983,-0.0882 0.374179,0 0.01204,0.012 0,1.03178 0,1.12253 0,0.12472 0,0.24945 0,0.37418 0,0.12472 -0.0882,0.28598 0,0.37417 0.08819,0.0882 0.285983,-0.0882 0.374177,0 0.08819,0.0882 0,0.24946 0,0.37418 0,0.17643 -0.01696,1.85393 0,1.87089 0.498903,0.4989 0.374176,-0.62363 0.374176,0.37417 0,0.24946 0,0.49891 0,0.74836 0,0.12472 0.124727,0.37418 0,0.37418 -0.124725,0 0,-0.49891 0,-0.37418 0,0.24945 -0.111556,0.52524 0,0.74836 0.05578,0.11155 0.285983,-0.0882 0.374179,0 0.08819,0.0882 0.124725,0.37417 0,0.37417 -0.124727,0 0,-0.24945 0,-0.37417 -0.623629,0.62363 -1.296925,1.20126 -1.870887,1.87088 -0.181503,0.21176 -0.219474,0.5163 -0.374177,0.74836 -0.215252,0.32287 -0.830267,0.83026 -1.122532,1.12253 -0.196991,0.19699 -0.92269,1.02261 -1.122532,1.12253 -0.111558,0.0558 -0.285983,-0.0882 -0.374178,0 -0.08819,0.0882 0.05578,0.26262 0,0.37418 -0.07888,0.15777 -0.249451,0.24945 -0.374177,0.37418 -0.124726,0.12472 -0.21641,0.29529 -0.374177,0.37417 -0.111558,0.0558 -0.285983,-0.0882 -0.374178,0 -0.08819,0.0882 0.08819,0.28599 0,0.37418 -0.08819,0.0882 -0.285983,-0.0882 -0.374177,0 -0.08819,0.0882 0.08819,0.28598 0,0.37418 -0.08819,0.0882 -0.285983,-0.0882 -0.374177,0 -0.08819,0.0882 0.08819,0.28598 0,0.37418 -0.08819,0.0882 -0.26262,-0.0558 -0.374178,0 -0.315534,0.15776 -0.43282,0.59058 -0.748354,0.74835 -0.111558,0.0558 -0.26262,-0.0558 -0.374178,0 -0.315534,0.15777 -0.43282,0.59059 -0.748354,0.74835 -0.111558,0.0558 -0.26262,-0.0558 -0.374178,0 -0.315534,0.15777 -0.454825,0.55267 -0.748354,0.74836 -0.188433,0.82437 -0.769755,0.19779 -1.122532,0.37418 -0.157767,0.0789 -0.216411,0.29529 -0.374178,0.37417 -0.111558,0.0558 -0.262619,-0.0558 -0.374177,0 -0.157767,0.0789 -0.249452,0.24946 -0.374177,0.37418 -0.124726,0.12473 -0.295294,0.21641 -0.374178,0.37418 -0.05578,0.11156 0.08819,0.28598 0,0.37418 -0.08819,0.0882 -0.262619,-0.0558 -0.374177,0 -0.827327,0.41366 -0.116115,0.23223 -0.374177,0.74835 -0.07888,0.15777 -0.249452,0.24945 -0.374178,0.37418 -0.124726,0.12472 -0.21641,0.29529 -0.374177,0.37418 -0.111558,0.0558 -0.285983,-0.0882 -0.374177,0 -0.08819,0.0882 0.08819,0.28598 0,0.37417 -0.08819,0.0882 -0.285983,-0.0882 -0.374178,0 -0.08819,0.0882 0.0882,0.28599 0,0.37418 -0.08819,0.0882 -0.285983,-0.0882 -0.374177,0 -0.08819,0.0882 0.05578,0.26262 0,0.37418 -0.157767,0.31553 -0.590588,0.43282 -0.748355,0.74835 -0.05578,0.11156 0.05578,0.26262 0,0.37418 -0.157767,0.31553 -0.590587,0.43282 -0.748354,0.74835 -0.05578,0.11156 0.05578,0.26262 0,0.37418 -0.07888,0.15777 -0.295294,0.21641 -0.374178,0.37418 -0.05578,0.11156 0.05578,0.26262 0,0.37418 -0.157767,0.31553 -0.590587,0.43282 -0.748354,0.74835 -0.05578,0.11156 0.05578,0.26262 0,0.37418 -0.07888,0.15777 -0.295294,0.21641 -0.374178,0.37418 -0.05578,0.11155 0.05578,0.26261 0,0.37417 -0.157767,0.31554 -0.590587,0.43282 -0.748354,0.74836 -0.05578,0.11156 0.05578,0.26262 0,0.37417 -0.157767,0.31554 -0.590588,0.43283 -0.748355,0.74836 -0.05578,0.11156 0.05578,0.26262 0,0.37418 -0.184101,0.3682 -1.312609,1.1285 -1.496709,1.49671 -0.05578,0.11155 0.05578,0.26262 0,0.37417 -0.224507,0.44902 -0.898026,0.67352 -1.122533,1.12254 -0.05578,0.11155 0.08819,0.28598 0,0.37417 -0.08819,0.0882 -0.262619,-0.0558 -0.374177,0 -0.09935,0.0497 -1.072858,1.02319 -1.122532,1.12253 -0.05578,0.11156 0.08819,0.28599 0,0.37418 -0.774186,0.77419 0.03026,-1.18306 -0.748355,0.37418 0,0.99781 0.124726,-0.12473 -0.374177,0.37418 -0.08819,0.0882 0.08819,0.28598 0,0.37417 -0.08819,0.0882 -0.285983,-0.0882 -0.374177,0 -0.08819,0.0882 0.08819,0.28599 0,0.37418 -0.08819,0.0882 -0.285983,-0.0882 -0.374178,0 -0.08819,0.0882 0.08819,0.28598 0,0.37418 -0.08819,0.0882 -0.374177,0.12472 -0.374177,0 0,-0.12473 0.374177,-0.12473 0.374177,0 0,0.17639 -0.249451,0.24945 -0.374177,0.37418"
         style="fill:none;fill-rule:evenodd;stroke:#000000;stroke-width:1;stroke-linecap:butt;stroke-linejoin:miter;stroke-miterlimit:4;stroke-dasharray:none;stroke-opacity:1" />
      <path
         inkscape:connector-curvature="0"
         id="path4536"
         d="m 59.494197,173.14731 c 0.249452,0.37417 0.430363,0.80454 0.748353,1.12253 0.378613,0.37861 1.505572,0.52916 1.870887,0.74835 0.302506,0.1815 0.472882,0.52798 0.748355,0.74836 0.351161,0.28092 0.736913,0.51698 1.122532,0.74835 0.239152,0.14349 0.509204,0.23069 0.748356,0.37418 0.385617,0.23137 0.736912,0.51698 1.122532,0.74835 0.239148,0.14349 0.525237,0.20684 0.748352,0.37418 0.282223,0.21167 0.466133,0.53669 0.748356,0.74835 0.223118,0.16734 0.551145,0.17697 0.748355,0.37418 0.197207,0.19721 0.176969,0.55115 0.374177,0.74836 0.197209,0.19721 0.5163,0.21947 0.748355,0.37417 0.158599,0.10574 1.045123,0.96772 1.122532,1.12254 0.05578,0.11155 -0.05578,0.26261 0,0.37417 0.157766,0.31554 0.590587,0.43283 0.748355,0.74836 0.05578,0.11156 -0.05578,0.26262 0,0.37418 0.07888,0.15776 0.249452,0.24945 0.374177,0.37417 0.124724,0.12473 0.227412,0.27634 0.374176,0.37418 0.232055,0.1547 0.5163,0.21947 0.748355,0.37418 0.146765,0.0978 0.227412,0.27633 0.374177,0.37417 0.232055,0.15471 0.5163,0.21948 0.748355,0.37418 0.550593,0.36706 0.946118,1.12965 1.496711,1.49671 0.232053,0.15471 0.5163,0.21948 0.748353,0.37418 0.146764,0.0978 0.216411,0.29529 0.374179,0.37418 0.111556,0.0558 0.285983,-0.0882 0.374176,0 0.774187,0.77418 -1.183058,-0.0303 0.374177,0.74835 0.111559,0.0558 0.249452,0 0.374179,0 0.124724,0.12473 0.21641,0.2953 0.374176,0.37418 0.111559,0.0558 0.26262,-0.0558 0.374177,0 0.368202,0.1841 1.128508,1.31261 1.49671,1.49671 0.111559,0.0558 0.262621,-0.0558 0.374177,0 0.315534,0.15776 0.432821,0.59059 0.748355,0.74835 0.111559,0.0558 0.285983,-0.0882 0.374177,0 0.0882,0.0882 -0.08819,0.28598 0,0.37418 0.0882,0.0882 0.26262,-0.0558 0.374179,0 0.157765,0.0789 0.21641,0.29529 0.374176,0.37418 0.111559,0.0558 0.285983,-0.0882 0.374176,0 0,0.9978 -0.124724,-0.12473 0.374179,0.37417 0.08819,0.0882 -0.0882,0.28599 0,0.37418 0.08819,0.0882 0.262618,-0.0558 0.374177,0 0.315534,0.15777 0.432821,0.59059 0.748355,0.74836 0.111557,0.0558 0.285983,-0.0882 0.374177,0 0.08819,0.0882 -0.08819,0.28598 0,0.37417 0.08819,0.0882 0.26262,-0.0558 0.374179,0 0.157765,0.0789 0.249449,0.24945 0.374176,0.37418 0.124725,0.12473 0.295294,0.21641 0.374176,0.37418 0.05578,0.11156 -0.08819,0.28598 0,0.37418 0.0882,0.0882 0.262621,-0.0558 0.37418,0 1.557234,0.77861 -0.400011,-0.0258 0.374176,0.74835 0.08819,0.0882 0.285983,-0.0882 0.374176,0 0.0882,0.0882 -0.08819,0.28598 0,0.37418 0.0882,0.0882 0.285983,-0.0882 0.374179,0 0.08819,0.0882 -0.0882,0.28598 0,0.37417 0.08819,0.0882 0.285983,-0.0882 0.374177,0 0.08819,0.0882 -0.08819,0.28599 0,0.37418 0.08819,0.0882 0.285983,-0.0882 0.374176,0 0.0882,0.0882 -0.05578,0.26262 0,0.37418 0.07889,0.15777 0.295294,0.21641 0.374179,0.37418 0.05578,0.11156 -0.0882,0.28598 0,0.37417 0.08819,0.0882 0.374177,-0.12472 0.374177,0 0,0.12473 -0.249452,0 -0.374177,0"
         style="fill:none;fill-rule:evenodd;stroke:#000000;stroke-width:1;stroke-linecap:butt;stroke-linejoin:miter;stroke-miterlimit:4;stroke-dasharray:none;stroke-opacity:1" />
    </g>
    <g
       id="g4543-3"
       transform="translate(142.86046,8.8640288)">
      <path
         inkscape:connector-curvature="0"
         id="path4524-6"
         d="m 44.901279,131.9878 c 2.120339,0 4.240678,0 6.361014,0 0.623631,0 1.247259,0 1.870888,0 0.374179,0 0.767556,-0.11832 1.122531,0 0.167339,0.0558 0.216411,0.2953 0.37418,0.37418 0.111556,0.0558 0.249451,0 0.374176,0 0.249452,0 0.498904,0 0.748355,0 0.623629,0 1.247257,0 1.870888,0 0.249449,0 0.511704,0.0789 0.748352,0 0.264584,-0.0882 0.483772,-0.28598 0.748356,-0.37418 0.301175,-0.10039 1.257601,0.11956 1.496708,0 0.157768,-0.0789 0.216411,-0.29529 0.374179,-0.37417 0.223115,-0.11156 0.525238,0.11155 0.748353,0 0.157768,-0.0789 0.21641,-0.2953 0.374179,-0.37418 0.223115,-0.11156 0.571966,0.17639 0.748355,0 0.08819,-0.0882 -0.0882,-0.28599 0,-0.37418 0.08819,-0.0882 0.285983,0.0882 0.374177,0 0.08819,-0.0882 0,-0.24945 0,-0.37418 0.124724,0 0.26262,0.0558 0.374176,0 0.157768,-0.0789 0.216411,-0.29529 0.374179,-0.37417 0.111556,-0.0558 0.46237,-0.0882 0.374177,0 -0.19721,0.1972 -1.027251,0.37417 -0.748356,0.37417 0.394417,0 0.794359,-0.15539 1.122532,-0.37417 0.10378,-0.0692 -0.08819,-0.28599 0,-0.37418 0.0882,-0.0882 0.249452,0 0.374179,0 0.195665,0 1.398323,-0.0492 1.496708,0 0.157769,0.0789 0.216411,0.29529 0.374177,0.37418 0.258458,0.12923 1.739545,-0.13135 1.870887,0 0.17639,0.17638 -0.111556,0.52524 0,0.74835 0.07888,0.15777 0.295293,0.21641 0.374179,0.37418 0.05578,0.11156 -0.0882,0.28598 0,0.37418 0.08819,0.0882 0.285983,-0.0882 0.374176,0 0.17639,0.17638 -0.17639,0.57196 0,0.74835 0.08819,0.0882 0.285983,-0.0882 0.374177,0 0.176389,0.17639 -0.111557,0.52524 0,0.74835 0.07888,0.15777 0.295293,0.21641 0.374179,0.37418 0.07418,0.14836 -0.0765,1.04604 0,1.12253 0.08819,0.0882 0.285982,-0.0882 0.374176,0 0.08819,0.0882 0,0.24946 0,0.37418 0,0.26026 -0.06766,1.73557 0,1.87089 0.07888,0.15776 0.295294,0.21641 0.374176,0.37418 0.118031,0.23605 -0.118028,1.63483 0,1.87088 0.07889,0.15777 0.295294,0.21641 0.374179,0.37418 0.14967,0.29934 -0.149672,0.82319 0,1.12253 0.07888,0.15777 0.295294,0.21641 0.374177,0.37418 0.149672,0.29934 -0.14967,0.82319 0,1.12253 0.07888,0.15777 0.295293,0.21641 0.374176,0.37418 0.149672,0.29934 -0.149669,0.82319 0,1.12253 0.07889,0.15777 0.295296,0.21641 0.374179,0.37418 0.111557,0.22311 -0.111559,0.52524 0,0.74835 0.07888,0.15777 0.295294,0.21641 0.374177,0.37418 0.111559,0.22312 -0.17639,0.57197 0,0.74835 0.08819,0.0882 0.285982,-0.0882 0.374179,0 0.176387,0.17639 -0.111559,0.52524 0,0.74836 0.07888,0.15777 0.295293,0.21641 0.374176,0.37417 0.05578,0.11156 -0.05578,0.26263 0,0.37418 0.07888,0.15777 0.295294,0.21641 0.374176,0.37418 0.111559,0.22312 -0.111556,0.52524 0,0.74836 0.07888,0.15776 0.295294,0.21641 0.37418,0.37417 0.05578,0.11156 -0.05578,0.26262 0,0.37418 0.07888,0.15777 0.295293,0.21641 0.374176,0.37418 0.05578,0.11156 -0.05578,0.26262 0,0.37417 0.07888,0.15777 0.295293,0.21641 0.374176,0.37418 0.05578,0.11156 -0.05578,0.26262 0,0.37418 0.07889,0.15777 0.295294,0.21641 0.374179,0.37418 0.05578,0.11155 -0.05578,0.26262 0,0.37417 0.07888,0.15777 0.295294,0.21642 0.374177,0.37418 0.05578,0.11156 -0.05578,0.26262 0,0.37418 0.07888,0.15777 0.295293,0.21641 0.374176,0.37418 0.111559,0.22311 -0.111556,0.52523 0,0.74835 0.07889,0.15777 0.295294,0.21641 0.374179,0.37418 0.05578,0.11156 -0.0882,0.28598 0,0.37417 0.08819,0.0882 0.285983,-0.0882 0.374177,0 0.176389,0.17639 -0.07888,0.51171 0,0.74836 0.226531,0.67959 0.320238,0.69442 0.748355,1.12253 0.124725,0.12473 0.295293,0.21641 0.374176,0.37418 0.111559,0.22312 -0.111559,0.52524 0,0.74835 0.157769,0.31554 0.590587,0.43283 0.748356,0.74836 0.111559,0.22311 -0.17639,0.57197 0,0.74835 0.08819,0.0882 0.285983,-0.0882 0.374176,0 0.0882,0.0882 -0.05578,0.26262 0,0.37418 0.07888,0.15777 0.295294,0.21641 0.374179,0.37418 0.05578,0.11156 -0.05578,0.26262 0,0.37418 0.157766,0.31553 0.590587,0.43282 0.748353,0.74835 0.111559,0.22312 -0.176387,0.57197 0,0.74835 0.0882,0.0882 0.285983,-0.0882 0.374179,0 0.08819,0.0882 -0.05578,0.26263 0,0.37418 0.07888,0.15777 0.295294,0.21641 0.374176,0.37418 0.05578,0.11156 -0.08819,0.28598 0,0.37418 0.08819,0.0882 0.285983,-0.0882 0.374177,0 0.187089,0.18709 -0.187087,0.93544 0,1.12253 0.0882,0.0882 0.285983,-0.0882 0.374179,0 0.08819,0.0882 -0.05578,0.26262 0,0.37417 0.07888,0.15777 0.295293,0.21642 0.374176,0.37418 0.07418,0.14836 -0.0765,1.04604 0,1.12254 0.08819,0.0882 0.285983,-0.0882 0.374177,0 0.176389,0.17639 -0.111557,0.52523 0,0.74835 0.07888,0.15777 0.295296,0.21641 0.374179,0.37418 0.07418,0.14835 -0.0765,1.04603 0,1.12253 0.08819,0.0882 0.285983,-0.0882 0.374176,0 0.102383,0.10238 -0.101494,1.29372 0,1.49671 0.07888,0.15777 0.295294,0.21641 0.374176,0.37418 0.117592,0.23517 -0.117588,1.26153 0,1.4967 0.07889,0.15777 0.295297,0.21642 0.37418,0.37418 0.113604,0.22721 -0.113605,2.01786 0,2.24507 0.07888,0.15776 0.295293,0.21641 0.374176,0.37417 0.05578,0.11156 0,0.24946 0,0.37418 0,0.12473 0,0.24945 0,0.37418 0,0.62363 0,1.24726 0,1.87089 0,0.12472 -0.05578,0.26261 0,0.37417 0.07888,0.15777 0.295293,0.21641 0.374179,0.37418 0.118028,0.23606 -0.118031,1.63483 0,1.87089 0.46237,0.92474 0.374176,-0.12916 0.374176,0.74835 0,0.74835 0,1.49671 0,2.24507 0,0.12472 0,0.24945 0,0.37417 0,0.12473 -0.05578,0.26262 0,0.37418 0.07888,0.15777 0.295294,0.21641 0.374177,0.37418 0.05578,0.11156 0,0.24945 0,0.37417 0,0.74836 0,1.49671 0,2.24507 0,0.12472 0.0882,0.28598 0,0.37418 -0.08819,0.0882 -0.285983,-0.0882 -0.374177,0 -0.08819,0.0882 0.05578,0.26261 0,0.37417 -0.07888,0.15777 -0.295293,0.21641 -0.374176,0.37418 -0.05578,0.11156 0.08819,0.28598 0,0.37418 -0.17639,0.17639 -0.571968,-0.17639 -0.748355,0 -0.0882,0.0882 0.08819,0.28598 0,0.37417 -0.17639,0.17639 -0.525238,-0.11155 -0.748356,0 -0.157766,0.0789 -0.216411,0.2953 -0.374176,0.37418 -0.09839,0.0492 -1.301047,0 -1.496711,0 -0.124725,0 -0.285983,0.0882 -0.374177,0 -0.08819,-0.0882 0.08819,-0.28598 0,-0.37418 -0.187089,-0.18708 -0.935442,0.18709 -1.122531,0 -0.08819,-0.0882 0.08819,-0.28598 0,-0.37417 -0.0765,-0.0765 -0.974175,0.0742 -1.122532,0 -0.157769,-0.0789 -0.216411,-0.2953 -0.374179,-0.37418 -0.148357,-0.0742 -1.046036,0.0765 -1.122532,0 -0.08819,-0.0882 0.0882,-0.28598 0,-0.37418 -0.07649,-0.0765 -0.974172,0.0742 -1.122532,0 -0.157766,-0.0789 -0.216411,-0.29529 -0.374176,-0.37417 -0.113874,-0.0569 -0.954019,0 -1.122532,0 -0.124727,0 -0.249452,0 -0.374176,0 -0.124728,0 -0.285983,0.0882 -0.37418,0 -0.08819,-0.0882 0.0882,-0.28599 0,-0.37418 -0.131341,-0.13134 -1.612429,0.12923 -1.870887,0 -0.157766,-0.0789 -0.216408,-0.2953 -0.374176,-0.37418 -0.111559,-0.0558 -0.26262,0.0558 -0.374177,0 -0.315534,-0.15776 -0.432821,-0.59059 -0.748355,-0.74835 -0.111559,-0.0558 -0.285983,0.0882 -0.374176,0 -0.0882,-0.0882 0.08819,-0.28599 0,-0.37418 -0.0882,-0.0882 -0.285983,0.0882 -0.374179,0 -0.498904,-0.4989 0.62363,-0.37418 -0.374177,-0.37418 -1.036169,0 0.287814,-0.37418 -0.748355,-0.37418 -0.124725,0 -0.498904,0 -0.374177,0 0.249452,0 0.997805,0 0.748356,0 -0.374179,0 -0.748356,0 -1.122532,0 -0.124727,0 -0.249452,0 -0.374179,0 -0.124725,0 -0.285983,0.0882 -0.374176,0 -0.0882,-0.0882 0.08819,-0.28598 0,-0.37417 -0.0882,-0.0882 -0.249452,0 -0.374179,0 -0.124725,0 -0.24945,0 -0.374177,0 -1.247256,0 -2.494515,0 -3.741772,0 -1.746162,0 -3.492322,0 -5.238482,0 -0.208852,0 -1.699604,-0.0571 -1.870888,0 -0.167338,0.0558 -0.21641,0.29529 -0.374179,0.37417 -0.247975,0.12399 -1.1831,-0.10453 -1.496708,0 -0.264583,0.0882 -0.483772,0.28599 -0.748355,0.37418 -0.362905,0.12097 -1.996753,-0.12415 -2.245064,0 -0.157766,0.0789 -0.216411,0.2953 -0.374176,0.37418 -0.223118,0.11156 -0.571966,-0.17639 -0.748356,0 -0.08819,0.0882 0.08819,0.28598 0,0.37418 -0.0765,0.0765 -0.974174,-0.0742 -1.122532,0 -0.157765,0.0789 -0.21641,0.29529 -0.374176,0.37417 -0.111559,0.0558 -0.26262,-0.0558 -0.374179,0 -0.157766,0.0789 -0.216411,0.2953 -0.374176,0.37418 -0.227209,0.11361 -2.017856,-0.1136 -2.245064,0 -0.157768,0.0789 -0.216411,0.29529 -0.374179,0.37418 -0.111556,0.0558 -0.249449,0 -0.374176,0 -0.124725,0 -0.249452,0 -0.374177,0 -1.247259,0 -2.494515,0 -3.741774,0 -0.124725,0 -0.249452,0 -0.374177,0 -0.124727,0 -0.285983,-0.0882 -0.374179,0 -0.08819,0.0882 0.0882,0.28598 0,0.37418 -0.01204,0.012 -1.031782,0 -1.122532,0 -0.124724,0 -0.249451,0 -0.374176,0 -0.124725,0 -0.374176,0.12472 -0.374176,0 0,-0.12473 0.374176,0.12472 0.374176,0 0,-0.17639 -0.295294,-0.21641 -0.374176,-0.37418 -0.06766,-0.13532 0,-1.61063 0,-1.87089 0,-0.9978 0,-1.99561 0,-2.99342 0,-0.16851 -0.05694,-1.00865 0,-1.12253 0.07888,-0.15777 0.295293,-0.21641 0.374176,-0.37418 0.05578,-0.11155 0,-0.24945 0,-0.37417 0,-0.12473 0,-0.24946 0,-0.37418 0,-0.62363 0,-1.24726 0,-1.87089 0,-0.12472 0,-0.24945 0,-0.37417 0,-0.12473 -0.05578,-0.26262 0,-0.37418 0.07888,-0.15777 0.295293,-0.21641 0.374176,-0.37418 0.05578,-0.11156 0,-0.24945 0,-0.37418 0,-0.12472 0,-0.24945 0,-0.37417 0,-0.62363 0,-1.24726 0,-1.87089 0,-0.12473 -0.05578,-0.26262 0,-0.37418 0.07889,-0.15776 0.295294,-0.21641 0.374179,-0.37417 0.05578,-0.11156 0,-0.24946 0,-0.37418 0,-0.12473 0,-0.24946 0,-0.37418 0,-0.74836 0,-1.49671 0,-2.24506 0,-0.16852 -0.05694,-1.00866 0,-1.12254 0.07888,-0.15776 0.318397,-0.20684 0.374177,-0.37417 0.06426,-0.19277 0,-2.22343 0,-2.61924 0,-0.12473 0,-0.24946 0,-0.37418 0,-0.12473 -0.05578,-0.26262 0,-0.37418 0.07888,-0.15777 0.295293,-0.21641 0.374176,-0.37418 0.113607,-0.2272 -0.113604,-2.01785 0,-2.24506 0.07889,-0.15777 0.295296,-0.21641 0.374179,-0.37418 0.117589,-0.23518 -0.117589,-1.26153 0,-1.49671 0.07888,-0.15777 0.295294,-0.21641 0.374177,-0.37417 0.149672,-0.29935 -0.14967,-0.82319 0,-1.12254 0.07888,-0.15776 0.295293,-0.21641 0.374179,-0.37417 0.110384,-0.22078 -0.08579,-0.86517 0,-1.12254 0.08819,-0.26458 0.285982,-0.48377 0.374176,-0.74835 0.07888,-0.23665 -0.111559,-0.52524 0,-0.74835 0.07888,-0.15777 0.295294,-0.21641 0.374176,-0.37418 0.118028,-0.23606 -0.118028,-1.63483 0,-1.87089 0.07888,-0.15777 0.295294,-0.21641 0.374179,-0.37418 0.117589,-0.23517 -0.117591,-1.26153 0,-1.49671 0.07888,-0.15776 0.295294,-0.21641 0.374177,-0.37417 0.149669,-0.29935 -0.149672,-0.82319 0,-1.12254 0.07888,-0.15776 0.295293,-0.21641 0.374176,-0.37417 0.149672,-0.29934 -0.149669,-0.82319 0,-1.12253 0.07889,-0.15777 0.295294,-0.21641 0.374179,-0.37418 0.04919,-0.0984 0,-1.30105 0,-1.49671 0,-0.87751 -0.0882,0.17639 0.374177,-0.74836 0.05578,-0.11155 0,-0.24945 0,-0.37417 0,-0.12473 0,-0.24946 0,-0.37418 0,-0.74836 0,-1.49671 0,-2.24507 0,-0.16851 -0.05694,-1.00865 0,-1.12253 0.07888,-0.15776 0.295293,-0.21641 0.374176,-0.37417 0.04919,-0.0984 0,-1.30105 0,-1.49671 0,-1.12253 0,-2.24507 0,-3.3676 0,-0.19567 -0.04919,-1.39832 0,-1.49671 0.07889,-0.15776 0.295294,-0.21641 0.374179,-0.37418 0.05578,-0.11155 0,-0.24945 0,-0.37417 0,-0.12473 0,-0.24946 0,-0.37418 0,-0.12473 -0.124727,-0.37418 0,-0.37418 0.124725,0 0,0.24945 0,0.37418 0.249452,-0.62363 0.498904,-1.24726 0.748353,-1.87089 z"
         style="fill:#ff0000;fill-opacity:1;fill-rule:evenodd;stroke:#000000;stroke-width:1;stroke-linecap:butt;stroke-linejoin:miter;stroke-miterlimit:4;stroke-dasharray:none;stroke-opacity:1" />
      <ellipse
         ry="10.851143"
         rx="7.1093688"
         cy="119.63995"
         cx="56.126598"
         id="path4528-7"
         style="fill:#ffffff;fill-opacity:1;stroke:#000000;stroke-width:1;stroke-miterlimit:4;stroke-dasharray:none;stroke-opacity:1" />
      <path
         inkscape:connector-curvature="0"
         id="path4530-5"
         d="m 25.069881,136.8521 c 1.719827,0.85992 0.938919,0.74836 2.245064,0.74836 0.124725,0 0.255852,-0.0394 0.374177,0 0.264583,0.0882 0.477787,0.30653 0.748355,0.37417 0.484008,0.12101 1.012703,-0.121 1.496708,0 0.270569,0.0677 0.483772,0.28599 0.748356,0.37418 0.118327,0.0395 0.249452,0 0.374179,0 0.374176,0 0.755621,-0.0734 1.122532,0 0.273478,0.0547 0.477784,0.30654 0.748352,0.37418 0.484008,0.121 1.012704,-0.121 1.496711,0 0.270569,0.0676 0.477785,0.30654 0.748353,0.37418 0.294336,0.0736 1.855949,0 2.245066,0 1.247257,0 2.494516,0 3.741772,0 0.316799,0 1.295551,-0.0671 1.496711,0 0.167336,0.0558 0.206838,0.3184 0.374176,0.37418 0.218925,0.073 1.923897,0 2.245064,0 1.995612,0 3.991226,0 5.986838,0 2.245064,0 4.490128,0 6.735191,0 0.748356,0 1.496711,0 2.245064,0 0.249452,0 0.511704,0.0789 0.748355,0 0.167339,-0.0558 0.206841,-0.3184 0.374177,-0.37418 0.236651,-0.0789 0.498903,0 0.748355,0 0.498904,0 0.997807,0 1.496711,0 0.249449,0 0.503745,0.0489 0.748353,0 0.38676,-0.0773 0.735774,-0.29683 1.122531,-0.37418 0.244608,-0.0489 0.498904,0 0.748356,0 0.997807,0 1.995612,0 2.993419,0 0.997807,0 1.995612,0 2.993419,0 0.374176,0 0.748353,0 1.122532,0 0.374176,0 0.755621,0.0734 1.122532,0 0.273478,-0.0547 0.474874,-0.31948 0.748355,-0.37418 0.366911,-0.0734 0.748353,0 1.122532,0 0.623628,0 1.247256,0 1.870885,0 0.249451,0 0.503748,0.0489 0.748355,0 0.386757,-0.0773 0.739891,-0.27851 1.122532,-0.37418 0.532318,-0.13308 1.373066,0.16595 1.870887,0 0.167338,-0.0558 0.216411,-0.29529 0.374176,-0.37417 0.09674,-0.0484 1.979848,0 2.245067,0 1.621432,0 3.242868,0 4.864303,0 0.137412,0 1.481654,0.0151 1.496711,0 0.08819,-0.0882 -0.0882,-0.28598 0,-0.37418 0.102566,-0.10257 1.607778,0.0877 1.870885,0 0.264583,-0.0882 0.474877,-0.31948 0.748355,-0.37418 0.366911,-0.0734 0.748356,0 1.122532,0 0.748356,0 1.496711,0 2.245064,0 0.374179,0 0.755621,0.0734 1.122532,0 2.428679,-0.48573 -0.833906,-0.37417 1.49671,-0.37417"
         style="fill:none;fill-rule:evenodd;stroke:#000000;stroke-width:1;stroke-linecap:butt;stroke-linejoin:miter;stroke-miterlimit:4;stroke-dasharray:none;stroke-opacity:1" />
      <path
         inkscape:connector-curvature="0"
         id="path4532-3"
         d="m 57.997486,139.84552 c 0,0.62363 0,1.24726 0,1.87089 0,0.12472 0.03944,0.25585 0,0.37418 -0.08819,0.26458 -0.306536,0.47778 -0.374176,0.74835 -0.09075,0.36301 0,0.74836 0,1.12253 0,0.99781 0,1.99561 0,2.99342 0,0.24945 0,0.49891 0,0.74835 0,0.24946 0.0605,0.50636 0,0.74836 -0.485736,1.94294 -0.374179,-0.39945 -0.374179,1.49671 0,1.99561 0,3.99122 0,5.98684 0,0.87308 0,1.74616 0,2.61924 0,0.16851 -0.05694,1.00866 0,1.12253 0.07888,0.15777 0.295296,0.21641 0.374179,0.37418 0.06766,0.13531 0,1.61063 0,1.87088 0,0.99781 0,1.99562 0,2.99342 0,0.12473 -0.08819,0.28599 0,0.37418 0.08819,0.0882 0.285983,-0.0882 0.374176,0 0.115864,0.11586 -0.115864,1.75502 0,1.87089 0.0882,0.0882 0.285983,-0.0882 0.374179,0 0.01204,0.012 0,1.03178 0,1.12253 0,0.12472 0,0.24945 0,0.37418 0,0.12472 -0.0882,0.28598 0,0.37417 0.08819,0.0882 0.285983,-0.0882 0.374177,0 0.08819,0.0882 0,0.24946 0,0.37418 0,0.17643 -0.01696,1.85393 0,1.87089 0.498903,0.4989 0.374176,-0.62363 0.374176,0.37417 0,0.24946 0,0.49891 0,0.74836 0,0.12472 0.124727,0.37418 0,0.37418 -0.124725,0 0,-0.49891 0,-0.37418 0,0.24945 -0.111556,0.52524 0,0.74836 0.05578,0.11155 0.285983,-0.0882 0.374179,0 0.08819,0.0882 0.124725,0.37417 0,0.37417 -0.124727,0 0,-0.24945 0,-0.37417 -0.623629,0.62363 -1.296925,1.20126 -1.870887,1.87088 -0.181503,0.21176 -0.219474,0.5163 -0.374177,0.74836 -0.215252,0.32287 -0.830267,0.83026 -1.122532,1.12253 -0.196991,0.19699 -0.92269,1.02261 -1.122532,1.12253 -0.111558,0.0558 -0.285983,-0.0882 -0.374178,0 -0.08819,0.0882 0.05578,0.26262 0,0.37418 -0.07888,0.15777 -0.249451,0.24945 -0.374177,0.37418 -0.124726,0.12472 -0.21641,0.29529 -0.374177,0.37417 -0.111558,0.0558 -0.285983,-0.0882 -0.374178,0 -0.08819,0.0882 0.08819,0.28599 0,0.37418 -0.08819,0.0882 -0.285983,-0.0882 -0.374177,0 -0.08819,0.0882 0.08819,0.28598 0,0.37418 -0.08819,0.0882 -0.285983,-0.0882 -0.374177,0 -0.08819,0.0882 0.08819,0.28598 0,0.37418 -0.08819,0.0882 -0.26262,-0.0558 -0.374178,0 -0.315534,0.15776 -0.43282,0.59058 -0.748354,0.74835 -0.111558,0.0558 -0.26262,-0.0558 -0.374178,0 -0.315534,0.15777 -0.43282,0.59059 -0.748354,0.74835 -0.111558,0.0558 -0.26262,-0.0558 -0.374178,0 -0.315534,0.15777 -0.454825,0.55267 -0.748354,0.74836 -0.188433,0.82437 -0.769755,0.19779 -1.122532,0.37418 -0.157767,0.0789 -0.216411,0.29529 -0.374178,0.37417 -0.111558,0.0558 -0.262619,-0.0558 -0.374177,0 -0.157767,0.0789 -0.249452,0.24946 -0.374177,0.37418 -0.124726,0.12473 -0.295294,0.21641 -0.374178,0.37418 -0.05578,0.11156 0.08819,0.28598 0,0.37418 -0.08819,0.0882 -0.262619,-0.0558 -0.374177,0 -0.827327,0.41366 -0.116115,0.23223 -0.374177,0.74835 -0.07888,0.15777 -0.249452,0.24945 -0.374178,0.37418 -0.124726,0.12472 -0.21641,0.29529 -0.374177,0.37418 -0.111558,0.0558 -0.285983,-0.0882 -0.374177,0 -0.08819,0.0882 0.08819,0.28598 0,0.37417 -0.08819,0.0882 -0.285983,-0.0882 -0.374178,0 -0.08819,0.0882 0.0882,0.28599 0,0.37418 -0.08819,0.0882 -0.285983,-0.0882 -0.374177,0 -0.08819,0.0882 0.05578,0.26262 0,0.37418 -0.157767,0.31553 -0.590588,0.43282 -0.748355,0.74835 -0.05578,0.11156 0.05578,0.26262 0,0.37418 -0.157767,0.31553 -0.590587,0.43282 -0.748354,0.74835 -0.05578,0.11156 0.05578,0.26262 0,0.37418 -0.07888,0.15777 -0.295294,0.21641 -0.374178,0.37418 -0.05578,0.11156 0.05578,0.26262 0,0.37418 -0.157767,0.31553 -0.590587,0.43282 -0.748354,0.74835 -0.05578,0.11156 0.05578,0.26262 0,0.37418 -0.07888,0.15777 -0.295294,0.21641 -0.374178,0.37418 -0.05578,0.11155 0.05578,0.26261 0,0.37417 -0.157767,0.31554 -0.590587,0.43282 -0.748354,0.74836 -0.05578,0.11156 0.05578,0.26262 0,0.37417 -0.157767,0.31554 -0.590588,0.43283 -0.748355,0.74836 -0.05578,0.11156 0.05578,0.26262 0,0.37418 -0.184101,0.3682 -1.312609,1.1285 -1.496709,1.49671 -0.05578,0.11155 0.05578,0.26262 0,0.37417 -0.224507,0.44902 -0.898026,0.67352 -1.122533,1.12254 -0.05578,0.11155 0.08819,0.28598 0,0.37417 -0.08819,0.0882 -0.262619,-0.0558 -0.374177,0 -0.09935,0.0497 -1.072858,1.02319 -1.122532,1.12253 -0.05578,0.11156 0.08819,0.28599 0,0.37418 -0.774186,0.77419 0.03026,-1.18306 -0.748355,0.37418 0,0.99781 0.124726,-0.12473 -0.374177,0.37418 -0.08819,0.0882 0.08819,0.28598 0,0.37417 -0.08819,0.0882 -0.285983,-0.0882 -0.374177,0 -0.08819,0.0882 0.08819,0.28599 0,0.37418 -0.08819,0.0882 -0.285983,-0.0882 -0.374178,0 -0.08819,0.0882 0.08819,0.28598 0,0.37418 -0.08819,0.0882 -0.374177,0.12472 -0.374177,0 0,-0.12473 0.374177,-0.12473 0.374177,0 0,0.17639 -0.249451,0.24945 -0.374177,0.37418"
         style="fill:none;fill-rule:evenodd;stroke:#000000;stroke-width:1;stroke-linecap:butt;stroke-linejoin:miter;stroke-miterlimit:4;stroke-dasharray:none;stroke-opacity:1" />
      <path
         inkscape:connector-curvature="0"
         id="path4536-5"
         d="m 59.494197,173.14731 c 0.249452,0.37417 0.430363,0.80454 0.748353,1.12253 0.378613,0.37861 1.505572,0.52916 1.870887,0.74835 0.302506,0.1815 0.472882,0.52798 0.748355,0.74836 0.351161,0.28092 0.736913,0.51698 1.122532,0.74835 0.239152,0.14349 0.509204,0.23069 0.748356,0.37418 0.385617,0.23137 0.736912,0.51698 1.122532,0.74835 0.239148,0.14349 0.525237,0.20684 0.748352,0.37418 0.282223,0.21167 0.466133,0.53669 0.748356,0.74835 0.223118,0.16734 0.551145,0.17697 0.748355,0.37418 0.197207,0.19721 0.176969,0.55115 0.374177,0.74836 0.197209,0.19721 0.5163,0.21947 0.748355,0.37417 0.158599,0.10574 1.045123,0.96772 1.122532,1.12254 0.05578,0.11155 -0.05578,0.26261 0,0.37417 0.157766,0.31554 0.590587,0.43283 0.748355,0.74836 0.05578,0.11156 -0.05578,0.26262 0,0.37418 0.07888,0.15776 0.249452,0.24945 0.374177,0.37417 0.124724,0.12473 0.227412,0.27634 0.374176,0.37418 0.232055,0.1547 0.5163,0.21947 0.748355,0.37418 0.146765,0.0978 0.227412,0.27633 0.374177,0.37417 0.232055,0.15471 0.5163,0.21948 0.748355,0.37418 0.550593,0.36706 0.946118,1.12965 1.496711,1.49671 0.232053,0.15471 0.5163,0.21948 0.748353,0.37418 0.146764,0.0978 0.216411,0.29529 0.374179,0.37418 0.111556,0.0558 0.285983,-0.0882 0.374176,0 0.774187,0.77418 -1.183058,-0.0303 0.374177,0.74835 0.111559,0.0558 0.249452,0 0.374179,0 0.124724,0.12473 0.21641,0.2953 0.374176,0.37418 0.111559,0.0558 0.26262,-0.0558 0.374177,0 0.368202,0.1841 1.128508,1.31261 1.49671,1.49671 0.111559,0.0558 0.262621,-0.0558 0.374177,0 0.315534,0.15776 0.432821,0.59059 0.748355,0.74835 0.111559,0.0558 0.285983,-0.0882 0.374177,0 0.0882,0.0882 -0.08819,0.28598 0,0.37418 0.0882,0.0882 0.26262,-0.0558 0.374179,0 0.157765,0.0789 0.21641,0.29529 0.374176,0.37418 0.111559,0.0558 0.285983,-0.0882 0.374176,0 0,0.9978 -0.124724,-0.12473 0.374179,0.37417 0.08819,0.0882 -0.0882,0.28599 0,0.37418 0.08819,0.0882 0.262618,-0.0558 0.374177,0 0.315534,0.15777 0.432821,0.59059 0.748355,0.74836 0.111557,0.0558 0.285983,-0.0882 0.374177,0 0.08819,0.0882 -0.08819,0.28598 0,0.37417 0.08819,0.0882 0.26262,-0.0558 0.374179,0 0.157765,0.0789 0.249449,0.24945 0.374176,0.37418 0.124725,0.12473 0.295294,0.21641 0.374176,0.37418 0.05578,0.11156 -0.08819,0.28598 0,0.37418 0.0882,0.0882 0.262621,-0.0558 0.37418,0 1.557234,0.77861 -0.400011,-0.0258 0.374176,0.74835 0.08819,0.0882 0.285983,-0.0882 0.374176,0 0.0882,0.0882 -0.08819,0.28598 0,0.37418 0.0882,0.0882 0.285983,-0.0882 0.374179,0 0.08819,0.0882 -0.0882,0.28598 0,0.37417 0.08819,0.0882 0.285983,-0.0882 0.374177,0 0.08819,0.0882 -0.08819,0.28599 0,0.37418 0.08819,0.0882 0.285983,-0.0882 0.374176,0 0.0882,0.0882 -0.05578,0.26262 0,0.37418 0.07889,0.15777 0.295294,0.21641 0.374179,0.37418 0.05578,0.11156 -0.0882,0.28598 0,0.37417 0.08819,0.0882 0.374177,-0.12472 0.374177,0 0,0.12473 -0.249452,0 -0.374177,0"
         style="fill:none;fill-rule:evenodd;stroke:#000000;stroke-width:1;stroke-linecap:butt;stroke-linejoin:miter;stroke-miterlimit:4;stroke-dasharray:none;stroke-opacity:1" />
    </g>
    <path
       style="fill:none;fill-rule:evenodd;stroke:#000000;stroke-width:0.26458332px;stroke-linecap:butt;stroke-linejoin:miter;stroke-opacity:1"
       d="m 67.35192,131.61362 c 0.498903,-0.12472 0.997807,-0.24945 1.496711,-0.37418 0.124724,-0.12472 0.206838,-0.3184 0.374176,-0.37418 0.236651,-0.0789 0.511704,0.0789 0.748355,0 0.167336,-0.0558 0.206838,-0.31839 0.374177,-0.37417 0.236651,-0.0789 0.506351,0.0605 0.748355,0 0.270568,-0.0676 0.48377,-0.28598 0.748353,-0.37418 0.118327,-0.0394 0.255852,0.0394 0.374179,0 0.264583,-0.0882 0.477785,-0.30653 0.748353,-0.37418 0.242004,-0.0605 0.498903,0 0.748355,0 0.249452,-0.12472 0.483772,-0.28598 0.748356,-0.37417 0.118324,-0.0394 0.26262,0.0558 0.374176,0 0.157768,-0.0789 0.216411,-0.2953 0.374179,-0.37418 0.111556,-0.0558 0.262618,0.0558 0.374177,0 1.712462,-0.85623 -1.587792,0.15509 1.122531,-0.74836 0.118325,-0.0394 0.249452,0 0.374177,0 0.124727,-0.12472 0.21641,-0.29529 0.374179,-0.37417 0.111556,-0.0558 0.262617,0.0558 0.374176,0 0.157769,-0.0789 0.216411,-0.2953 0.374177,-0.37418 0.111558,-0.0558 0.26262,0.0558 0.374179,0 0.157765,-0.0789 0.21641,-0.29529 0.374176,-0.37418 0.111559,-0.0558 0.26262,0.0558 0.374179,0 0.157766,-0.0789 0.216408,-0.29529 0.374176,-0.37418 0.111559,-0.0558 0.262621,0.0558 0.374177,0 0.157768,-0.0789 0.21641,-0.29529 0.374179,-0.37417 0.111556,-0.0558 0.262617,0.0558 0.374176,0 0.157766,-0.0789 0.249452,-0.24945 0.374177,-0.37418 0.124727,-0.12473 0.249451,-0.24945 0.374179,-0.37418 0.124724,-0.12472 0.21641,-0.29529 0.374176,-0.37417 0.223115,-0.11156 0.571966,0.17639 0.748355,0 0.08819,-0.0882 -0.0882,-0.28599 0,-0.37418 0.08819,-0.0882 0.285983,0.0882 0.374177,0 0.774187,-0.77419 -1.183058,0.0303 0.374176,-0.74836 0.111559,-0.0558 0.285983,0.0882 0.374179,0 0.08819,-0.0882 -0.0882,-0.28598 0,-0.37417 0.08819,-0.0882 0.262618,0.0558 0.374177,0 0.592762,-0.29638 0.374179,-1.25236 0.374179,-0.37418"
       id="path4575"
       inkscape:connector-curvature="0" />
    <text
       xml:space="preserve"
       style="font-style:normal;font-variant:normal;font-weight:normal;font-stretch:normal;font-size:8.46666622px;line-height:1.25;font-family:'Bitstream Vera Sans';-inkscape-font-specification:'Bitstream Vera Sans, Normal';font-variant-ligatures:normal;font-variant-caps:normal;font-variant-numeric:normal;font-feature-settings:normal;text-align:start;letter-spacing:0px;word-spacing:0px;writing-mode:lr-tb;text-anchor:start;fill:#000000;fill-opacity:1;stroke:none;stroke-width:0.26458332px;stroke-linecap:butt;stroke-linejoin:miter;stroke-opacity:1"
       x="85.724998"
       y="114.5698"
       id="text4662"><tspan
         sodipodi:role="line"
         id="tspan4660"
         x="85.724998"
         y="114.5698"
         style="stroke-width:0.26458332px">Ah. Tea.</tspan></text>
    <g
       id="g4692">
      <rect
         y="137.60046"
         x="98.782814"
         height="15.341271"
         width="8.9802551"
         id="rect4652"
         style="fill:#ffffff;fill-opacity:1;stroke:#000000;stroke-width:1;stroke-miterlimit:4;stroke-dasharray:none;stroke-opacity:1" />
      <path
         sodipodi:open="true"
         d="m 98.74566,148.41885 a 5.0270834,3.96875 0 0 1 -4.553991,-3.9546 5.0270834,3.96875 0 0 1 4.562726,-3.94832"
         sodipodi:end="4.6198865"
         sodipodi:start="1.6650441"
         sodipodi:ry="3.96875"
         sodipodi:rx="5.0270834"
         sodipodi:cy="144.46771"
         sodipodi:cx="99.21875"
         sodipodi:type="arc"
         id="path4654"
         style="fill:#ffffff;fill-opacity:0.07389161;stroke:#000000;stroke-width:1;stroke-miterlimit:4;stroke-dasharray:none;stroke-opacity:1" />
      <path
         inkscape:connector-curvature="0"
         id="path4687"
         d="m 103.98125,134.94271 c -0.57195,-0.14299 -0.34735,-0.13229 -0.66146,-0.13229 -0.0441,0 -0.10111,0.0312 -0.13229,0 -0.0312,-0.0312 0.0312,-0.10111 0,-0.13229 -0.0312,-0.0312 -0.0928,0.0197 -0.13229,0 -0.0558,-0.0279 -0.0765,-0.1044 -0.13229,-0.13229 -0.0395,-0.0197 -0.0928,0.0197 -0.1323,0 -0.0253,-0.0127 -0.5165,-0.50384 -0.52916,-0.52917 -0.0197,-0.0394 0.0312,-0.10111 0,-0.13229 -0.0312,-0.0312 -0.10111,0.0312 -0.13229,0 -0.0312,-0.0312 0.0197,-0.0928 0,-0.13229 -0.0279,-0.0558 -0.10441,-0.0765 -0.1323,-0.13229 -0.0197,-0.0394 0.0312,-0.10111 0,-0.13229 -0.0312,-0.0312 -0.10111,0.0312 -0.13229,0 -0.0661,-0.0661 0.0661,-0.33073 0,-0.39688 -0.0312,-0.0312 -0.10111,0.0312 -0.13229,0 -0.0312,-0.0312 0,-0.0882 0,-0.13229 0,-0.0938 -0.0171,-0.75955 0,-0.79375 0.0279,-0.0558 0.1044,-0.0765 0.13229,-0.13229 0.0197,-0.0394 -0.0312,-0.10111 0,-0.13229 0.0312,-0.0312 0.0928,0.0197 0.13229,0 0.0558,-0.0279 0.0882,-0.0882 0.1323,-0.1323 0.0441,-0.0441 0.1044,-0.0765 0.13229,-0.13229 0.0197,-0.0394 -0.0197,-0.0928 0,-0.13229 0.0651,-0.13018 0.46407,-0.39899 0.52916,-0.52917 0.0197,-0.0394 -0.0312,-0.10111 0,-0.13229 0.0312,-0.0312 0.10111,0.0312 0.1323,0 0.0881,-0.0881 -0.0881,-0.17646 0,-0.26458 0.0312,-0.0312 0.10111,0.0312 0.13229,0 0.0312,-0.0312 -0.0197,-0.0928 0,-0.13229 0.0279,-0.0558 0.1044,-0.0765 0.13229,-0.13229 0.0197,-0.0395 -0.0312,-0.10112 0,-0.1323 0.0312,-0.0312 0.10111,0.0312 0.13229,0 0.0312,-0.0312 -0.0197,-0.0928 0,-0.13229 0.0279,-0.0558 0.1044,-0.0765 0.13229,-0.13229 0.0394,-0.0789 -0.0624,-0.20222 0,-0.26458 0.0312,-0.0312 0.10111,0.0312 0.13229,0 0.0312,-0.0312 -0.0197,-0.0928 0,-0.13229 0.0279,-0.0558 0.10441,-0.0765 0.1323,-0.1323 0.0529,-0.10583 -0.0529,-0.29104 0,-0.39687 0.0279,-0.0558 0.1044,-0.0765 0.13229,-0.13229 0.009,-0.0181 0.009,-0.77569 0,-0.79375 -0.0279,-0.0558 -0.1044,-0.0765 -0.13229,-0.13229 -0.0394,-0.0789 0.0394,-0.1857 0,-0.26459 -0.0279,-0.0558 -0.10441,-0.0765 -0.1323,-0.13229 -0.0394,-0.0789 0.0394,-0.1857 0,-0.26458 -0.0279,-0.0558 -0.1044,-0.0765 -0.13229,-0.13229 -0.0529,-0.10584 0.0529,-0.29105 0,-0.39688 -0.16347,-0.32695 -0.13229,0.0457 -0.13229,-0.26458"
         style="fill:none;fill-rule:evenodd;stroke:#000000;stroke-width:0.26458332px;stroke-linecap:butt;stroke-linejoin:miter;stroke-opacity:1" />
    </g>
    <g
       transform="matrix(-1,0,0,1,304.85083,-1.1608112)"
       id="g4692-4">
      <rect
         y="137.60046"
         x="98.782814"
         height="15.341271"
         width="8.9802551"
         id="rect4652-8"
         style="fill:#ffffff;fill-opacity:1;stroke:#000000;stroke-width:1;stroke-miterlimit:4;stroke-dasharray:none;stroke-opacity:1" />
      <path
         sodipodi:open="true"
         d="m 98.74566,148.41885 a 5.0270834,3.96875 0 0 1 -4.553991,-3.9546 5.0270834,3.96875 0 0 1 4.562726,-3.94832"
         sodipodi:end="4.6198865"
         sodipodi:start="1.6650441"
         sodipodi:ry="3.96875"
         sodipodi:rx="5.0270834"
         sodipodi:cy="144.46771"
         sodipodi:cx="99.21875"
         sodipodi:type="arc"
         id="path4654-0"
         style="fill:#ffffff;fill-opacity:0.07389161;stroke:#000000;stroke-width:1;stroke-miterlimit:4;stroke-dasharray:none;stroke-opacity:1" />
      <path
         inkscape:connector-curvature="0"
         id="path4687-4"
         d="m 103.98125,134.94271 c -0.57195,-0.14299 -0.34735,-0.13229 -0.66146,-0.13229 -0.0441,0 -0.10111,0.0312 -0.13229,0 -0.0312,-0.0312 0.0312,-0.10111 0,-0.13229 -0.0312,-0.0312 -0.0928,0.0197 -0.13229,0 -0.0558,-0.0279 -0.0765,-0.1044 -0.13229,-0.13229 -0.0395,-0.0197 -0.0928,0.0197 -0.1323,0 -0.0253,-0.0127 -0.5165,-0.50384 -0.52916,-0.52917 -0.0197,-0.0394 0.0312,-0.10111 0,-0.13229 -0.0312,-0.0312 -0.10111,0.0312 -0.13229,0 -0.0312,-0.0312 0.0197,-0.0928 0,-0.13229 -0.0279,-0.0558 -0.10441,-0.0765 -0.1323,-0.13229 -0.0197,-0.0394 0.0312,-0.10111 0,-0.13229 -0.0312,-0.0312 -0.10111,0.0312 -0.13229,0 -0.0661,-0.0661 0.0661,-0.33073 0,-0.39688 -0.0312,-0.0312 -0.10111,0.0312 -0.13229,0 -0.0312,-0.0312 0,-0.0882 0,-0.13229 0,-0.0938 -0.0171,-0.75955 0,-0.79375 0.0279,-0.0558 0.1044,-0.0765 0.13229,-0.13229 0.0197,-0.0394 -0.0312,-0.10111 0,-0.13229 0.0312,-0.0312 0.0928,0.0197 0.13229,0 0.0558,-0.0279 0.0882,-0.0882 0.1323,-0.1323 0.0441,-0.0441 0.1044,-0.0765 0.13229,-0.13229 0.0197,-0.0394 -0.0197,-0.0928 0,-0.13229 0.0651,-0.13018 0.46407,-0.39899 0.52916,-0.52917 0.0197,-0.0394 -0.0312,-0.10111 0,-0.13229 0.0312,-0.0312 0.10111,0.0312 0.1323,0 0.0881,-0.0881 -0.0881,-0.17646 0,-0.26458 0.0312,-0.0312 0.10111,0.0312 0.13229,0 0.0312,-0.0312 -0.0197,-0.0928 0,-0.13229 0.0279,-0.0558 0.1044,-0.0765 0.13229,-0.13229 0.0197,-0.0395 -0.0312,-0.10112 0,-0.1323 0.0312,-0.0312 0.10111,0.0312 0.13229,0 0.0312,-0.0312 -0.0197,-0.0928 0,-0.13229 0.0279,-0.0558 0.1044,-0.0765 0.13229,-0.13229 0.0394,-0.0789 -0.0624,-0.20222 0,-0.26458 0.0312,-0.0312 0.10111,0.0312 0.13229,0 0.0312,-0.0312 -0.0197,-0.0928 0,-0.13229 0.0279,-0.0558 0.10441,-0.0765 0.1323,-0.1323 0.0529,-0.10583 -0.0529,-0.29104 0,-0.39687 0.0279,-0.0558 0.1044,-0.0765 0.13229,-0.13229 0.009,-0.0181 0.009,-0.77569 0,-0.79375 -0.0279,-0.0558 -0.1044,-0.0765 -0.13229,-0.13229 -0.0394,-0.0789 0.0394,-0.1857 0,-0.26459 -0.0279,-0.0558 -0.10441,-0.0765 -0.1323,-0.13229 -0.0394,-0.0789 0.0394,-0.1857 0,-0.26458 -0.0279,-0.0558 -0.1044,-0.0765 -0.13229,-0.13229 -0.0529,-0.10584 0.0529,-0.29105 0,-0.39688 -0.16347,-0.32695 -0.13229,0.0457 -0.13229,-0.26458"
         style="fill:none;fill-rule:evenodd;stroke:#000000;stroke-width:0.26458332px;stroke-linecap:butt;stroke-linejoin:miter;stroke-opacity:1" />
    </g>
    <text
       xml:space="preserve"
       style="font-style:normal;font-variant:normal;font-weight:normal;font-stretch:normal;font-size:8.46666622px;line-height:1.25;font-family:'Bitstream Vera Sans';-inkscape-font-specification:'Bitstream Vera Sans, Normal';font-variant-ligatures:normal;font-variant-caps:normal;font-variant-numeric:normal;font-feature-settings:normal;text-align:start;letter-spacing:0px;word-spacing:0px;writing-mode:lr-tb;text-anchor:start;fill:#000000;fill-opacity:1;stroke:none;stroke-width:0.26458332px;stroke-linecap:butt;stroke-linejoin:miter;stroke-opacity:1"
       x="218.41354"
       y="121.84584"
       id="text4720"><tspan
         sodipodi:role="line"
         id="tspan4718"
         x="218.41354"
         y="121.84584"
         style="stroke-width:0.26458332px">sip</tspan></text>
  </g>
</svg>
